<?xml version="1.0" encoding="utf-8"?>
<!-- Generator: Adobe Illustrator 16.0.0, SVG Export Plug-In . SVG Version: 6.00 Build 0)  -->
<!DOCTYPE svg PUBLIC "-//W3C//DTD SVG 1.1//EN" "http://www.w3.org/Graphics/SVG/1.1/DTD/svg11.dtd">
<svg version="1.1" id="Layer_1" xmlns="http://www.w3.org/2000/svg" xmlns:xlink="http://www.w3.org/1999/xlink" x="0px" y="0px"
	 width="32px" height="16px" viewBox="37.354 26.51 32 16" enable-background="new 37.354 26.51 32 16" xml:space="preserve">
<g id="Layer_4">
	<polygon fill="#618DA5" points="69.354,42.51 69.354,34.51 53.354,26.51 37.354,34.509 37.354,42.51 53.354,34.51 	"/>
</g>
</svg>
