<?xml version="1.0" encoding="utf-8"?>
<!-- Generator: Adobe Illustrator 15.1.0, SVG Export Plug-In . SVG Version: 6.00 Build 0)  -->
<!DOCTYPE svg PUBLIC "-//W3C//DTD SVG 1.1//EN" "http://www.w3.org/Graphics/SVG/1.1/DTD/svg11.dtd">
<svg version="1.1" id="Layer_1" xmlns="http://www.w3.org/2000/svg" xmlns:xlink="http://www.w3.org/1999/xlink" x="0px" y="0px"
	 width="20px" height="20px" viewBox="0 0 20 20" enable-background="new 0 0 20 20" xml:space="preserve">
<path fill="#FFFFFF" d="M10,0C4.478,0,0,4.478,0,10c0,5.523,4.478,10,10,10c5.523,0,10-4.477,10-10C20,4.478,15.523,0,10,0z
	 M12.143,10.004h-1.401c0,2.238,0,4.996,0,4.996H8.665c0,0,0-2.729,0-4.996H7.677V8.238h0.988V7.096C8.665,6.278,9.053,5,10.76,5
	l1.538,0.006V6.72c0,0-0.935,0-1.116,0s-0.44,0.091-0.44,0.481v1.037h1.583L12.143,10.004z"/>
</svg>
