<?xml version="1.0" encoding="utf-8"?>
<!-- Generator: Adobe Illustrator 16.0.0, SVG Export Plug-In . SVG Version: 6.00 Build 0)  -->
<!DOCTYPE svg PUBLIC "-//W3C//DTD SVG 1.0//EN" "http://www.w3.org/TR/2001/REC-SVG-20010904/DTD/svg10.dtd">
<svg version="1.0" id="Layer_1" xmlns="http://www.w3.org/2000/svg" xmlns:xlink="http://www.w3.org/1999/xlink" x="0px" y="0px"
	 width="250px" height="250px" viewBox="0 0 250 250" enable-background="new 0 0 250 250" xml:space="preserve">
<g id="WBaQ1l.tif">
	<g>
		<path fill-rule="evenodd" clip-rule="evenodd" fill="#FFFFFF" d="M6.667,40.845c1.735-2.556,4.348-1.842,6.744-1.734
			c2.81,0.126,5.611,0.565,8.418,0.596c2.751,0.029,3.609,1.119,3.602,3.891c-0.07,26.857-0.006,53.715,0.019,80.572
			c0.001,1.432,0,2.862,0,4.294c0.426,0.126,0.853,0.251,1.279,0.378c0.596-1.479,1.385-2.911,1.758-4.444
			c3.223-13.223,6.383-26.462,9.538-39.703c1.147-4.814,2.141-9.667,3.426-14.443c0.231-0.861,1.517-2.013,2.353-2.045
			c5.057-0.19,10.124-0.095,15.645-0.095c-0.197,1.328-0.278,2.505-0.552,3.636c-4.574,18.915-9.047,37.856-13.839,56.715
			c-1.498,5.895-1.224,11.524,0.134,17.318c5.029,21.466,9.903,42.969,15.005,64.417c0.705,2.961-0.309,3.627-2.845,3.764
			c-2.809,0.15-5.625,0.35-8.41,0.734c-3.221,0.444-4.754-0.989-5.501-4.002c-3.332-13.43-6.748-26.839-10.163-40.249
			c-1.11-4.359-2.274-8.707-3.487-13.04c-0.345-1.233-0.951-2.394-1.436-3.587c-0.312,0.04-0.624,0.08-0.935,0.121
			c0,1.151,0.009,2.303-0.001,3.455c-0.142,15.683-0.365,31.364-0.365,47.047c0,3.213-0.917,4.436-4.206,4.15
			c-3.022-0.262-6.088-0.022-9.135-0.016c-3.997,0.009-4.701-0.66-4.754-4.697c-0.263-19.742-0.55-39.483-0.75-59.227
			C7.899,114.077,7.667,83.5,7.355,52.923c-0.018-1.771-0.449-3.538-0.688-5.307C6.667,45.359,6.667,43.103,6.667,40.845z"/>
		<path fill-rule="evenodd" clip-rule="evenodd" fill="#FFFFFF" d="M85.212,217.571c-1.082-0.263-2.151-0.672-3.247-0.767
			c-9.852-0.857-15.435-5.793-16.054-15.769c-0.872-14.036-1.238-28.12-1.328-42.187c-0.101-15.669,0.338-31.343,0.564-47.015
			c0.132-9.132,0.374-18.264,0.425-27.397c0.017-3.051,1.236-4.276,4.273-4.147c3.264,0.139,6.554,0.17,9.808-0.077
			c2.818-0.214,3.366,0.969,3.361,3.515c-0.065,30.904-0.041,61.809-0.023,92.713c0.002,4.398-0.008,8.802,0.185,13.194
			c0.114,2.582,0.412,5.205,3.241,6.582c5.209,2.537,9.05,0.105,9.146-6.07c0.318-20.398,0.578-40.798,0.782-61.197
			c0.19-18.945,0.313-37.892,0.378-56.839c0.008-2.399,0.607-3.524,3.234-3.375c3.26,0.186,6.544,0.145,9.809-0.004
			c3.268-0.149,4.368,1.373,4.354,4.472c-0.063,15.34-0.016,30.681-0.023,46.021c-0.013,24.364-0.014,48.728-0.084,73.092
			c-0.01,3.715-0.275,7.436-0.575,11.142c-0.453,5.598-3.228,9.604-8.702,11.236c-3.958,1.182-8.046,1.934-12.077,2.876
			C90.177,217.571,87.694,217.571,85.212,217.571z"/>
		<path fill-rule="evenodd" clip-rule="evenodd" fill="#FFFFFF" d="M199.644,35.429c0.499,9.214,1.001,18.429,1.494,27.644
			c0.133,2.474,0.369,4.951,0.328,7.423c-0.045,2.674,0.872,3.961,3.749,3.745c2.579-0.194,5.189,0.057,7.776-0.067
			c1.926-0.092,3.027,0.524,3.123,2.546c0.26,5.514,0.609,11.027,0.675,16.543c0.007,0.579-1.621,1.644-2.528,1.688
			c-3.903,0.189-7.821,0.081-12.143,0.081c0,2.208,0.001,3.639,0,5.07c-0.018,20.75-0.044,41.499-0.052,62.248
			c-0.005,15.329-0.05,30.658,0.085,45.986c0.023,2.736-0.671,3.823-3.524,3.756c-3.026-0.072-6.08,0.22-9.094,0.584
			c-2.868,0.348-3.824-0.872-3.828-3.578c-0.011-9.359-0.12-18.719-0.196-28.078c-0.213-25.707-0.427-51.414-0.644-77.122
			c-0.01-1.127-0.043-2.255-0.082-3.382c-0.174-4.99-0.177-4.99-5.047-5.083c-0.339-0.006-0.677-0.004-1.015-0.018
			c-5.193-0.216-5.132-0.218-5.281-5.325c-0.124-4.279-0.344-8.558-0.66-12.827c-0.17-2.294,0.545-3.168,2.98-3.205
			c7.434-0.112,7.407-0.209,7.253-7.51c-0.181-8.566-0.284-17.135-0.484-25.701c-0.062-2.677,0.929-4.298,3.734-4.629
			c0.868-0.103,1.698-0.516,2.546-0.788C192.421,35.429,196.032,35.429,199.644,35.429z"/>
		<path fill-rule="evenodd" clip-rule="evenodd" fill="#FFFFFF" d="M244.333,53.71c-0.97,5.047-1.978,10.087-2.9,15.143
			c-1.351,7.389-2.694,14.781-3.922,22.191c-0.31,1.872-1.046,2.426-2.917,2.168c-2.331-0.322-4.712-0.459-7.064-0.404
			c-2.018,0.047-2.832-0.716-2.921-2.694c-0.262-5.839-0.679-11.671-0.921-17.51c-0.332-7.979-0.526-15.963-0.854-23.941
			c-0.079-1.904,0.349-2.923,2.533-2.944c2.688-0.025,5.375-0.36,8.058-0.612c4.451-0.42,8.168,0.876,10.909,4.542
			C244.333,51.002,244.333,52.356,244.333,53.71z"/>
		<path fill-rule="evenodd" clip-rule="evenodd" fill="#FFFFFF" d="M122.92,169.771c5.05,0,9.771-0.047,14.492,0.021
			c2.214,0.031,3.115,1.349,3.166,3.528c0.151,6.536,0.403,13.07,0.602,19.606c0.037,1.212,0.006,2.427,0.006,3.399
			c0.596,0.347,0.784,0.551,0.976,0.554c9.764,0.179,9.911,0.172,9.598-9.387c-0.313-9.572-0.855-19.141-1.507-28.697
			c-0.465-6.834-3.542-9.977-10.387-11.231c-1.328-0.244-2.664-0.442-3.994-0.678c-7.505-1.33-11.984-6.178-12.51-13.805
			c-0.349-5.059-0.515-10.132-0.642-15.202c-0.273-10.936-0.583-21.872-0.668-32.81c-0.111-14.012,10.915-20.627,22.684-19.162
			c5.314,0.662,10.519,2.319,15.726,3.702c3.459,0.919,5.635,3.191,6.016,6.908c0.114,1.12,0.326,2.238,0.336,3.357
			c0.085,10.379,0.164,20.757,0.184,31.135c0.008,4.044-1.499,5.226-5.484,4.558c-2.106-0.353-4.218-0.931-6.329-0.94
			c-2.859-0.012-3.506-1.253-3.511-3.919c-0.012-6.988-0.321-13.976-0.562-20.961c-0.158-4.556-1.774-6.333-5.66-6.401
			c-4.047-0.07-5.974,1.763-6.054,6.395c-0.164,9.586-0.152,19.176-0.147,28.765c0.002,4.595,2.304,7.57,6.613,9.177
			c4.107,1.532,8.241,3.055,12.188,4.949c5.89,2.828,8.892,7.553,8.979,14.275c0.235,17.932,0.656,35.86,1.027,53.79
			c0.204,9.854-5.662,15.991-15.534,15.933c-4.611-0.028-9.235-0.291-13.829-0.713c-7.52-0.688-11.931-4.775-13.055-13.151
			c-1.361-10.145-2.003-20.385-2.931-30.586C122.647,171.533,122.816,170.865,122.92,169.771z"/>
	</g>
</g>
</svg>
